﻿2020-02-07T10:29:58.3501632+02:00;VSTestExecutionThread;Info;SpecFlow+Runner execution started
2020-02-07T10:29:58.3501632+02:00;VSTestExecutionThread;Info;SpecFlow+Runner 3.1.48 in Framework clr40 in x86 mode execution started
2020-02-07T10:29:58.3501632+02:00;VSTestExecutionThread;Info;TestAdapter Location: C:\Users\Vesela\source\repos\SearchInYouTube\packages\SpecRun.Runner.3.1.48\tools\net45\TechTalk.SpecRun.VisualStudio.TestAdapter.dll
2020-02-07T10:29:58.3951460+02:00;VSTestExecutionThread;Info;SpecRun: running tests in C:\Users\Vesela\source\repos\SearchInYouTube\bin\Debug\SearchInYouTube.dll
2020-02-07T10:29:58.3961478+02:00;VSTestExecutionThread;Info;Output folder configured to "C:\Users\Vesela\source\repos\SearchInYouTube\TestResults" (default)
2020-02-07T10:29:58.3961478+02:00;VSTestExecutionThread;Info;Profile: 
2020-02-07T10:29:58.4171395+02:00;VSTestExecutionThread;Info;Log file path: C:\Users\Vesela\source\repos\SearchInYouTube\TestResults\Unnamed project__2020-02-07T102958.log
2020-02-07T10:29:58.4481296+02:00;Thread#13;Info;Checking license
2020-02-07T10:29:58.4531279+02:00;Thread#13;Info;License check completed
2020-02-07T10:29:58.4531279+02:00;Thread#13;Info;starting test run
2020-02-07T10:29:58.4611250+02:00;Thread#13;Info;Discovering target: Default
2020-02-07T10:29:58.4611250+02:00;Thread#13;Info;Discovering tests from assembly: C:\Users\Vesela\source\repos\SearchInYouTube\bin\Debug\SearchInYouTube.dll
2020-02-07T10:29:59.0111032+02:00;Thread#13;Info;Discovered tests from assembly: C:\Users\Vesela\source\repos\SearchInYouTube\bin\Debug\SearchInYouTube.dll
2020-02-07T10:29:59.0120893+02:00:Test Suite Dump
2020-02-07T10:29:59.0140888+02:00:#0: Unnamed project/ - 
2020-02-07T10:29:59.0140888+02:00:#1: Default - 
2020-02-07T10:29:59.0140888+02:00:#2: SearchInYouTube - 
2020-02-07T10:29:59.0140888+02:00:#3: YouTubeSearchFeature - 
2020-02-07T10:29:59.0500768+02:00:#4: Youtube should search for the given keyword and should navigate to search results page - TestAssembly:SearchInYouTube/Feature:YouTubeSearchFeature/Scenario:Youtube+should+search+for+the+given+keyword+and+should+navigate+to+search+results+page
2020-02-07T10:29:59.0500768+02:00:End: Test Suite Dump
2020-02-07T10:29:59.0700702+02:00:Thread#0:Scheduler: get next test for thread 0
2020-02-07T10:29:59.0710700+02:00:Thread#:Scheduler: testitem #4 from normal test queue 
2020-02-07T10:29:59.0720695+02:00:Thread#0:Scheduler: considering testitem #4 for thread 0
2020-02-07T10:29:59.0750685+02:00:Thread#0:TestItem#4:testItemMatchesCurrentTestThread:UnSpecific
2020-02-07T10:29:59.0750685+02:00:Thread#0:TestItem#4:runsOnOneOtherThreadSpecific:False
2020-02-07T10:29:59.0750685+02:00:Thread#0:TestItem#4:runsOnOneOtherThreadUnspecific:False
2020-02-07T10:29:59.0750685+02:00:Thread#0:Scheduler: using testitem #4 for thread 0
2020-02-07T10:29:59.0760684+02:00:Thread#0:Scheduler: Test #4 is scheduled for thread
2020-02-07T10:29:59.0770679+02:00:Thread#0:Scheduler: with testItemExecutionIndex 0
2020-02-07T10:29:59.0800781+02:00:Thread #0: creating new test thread executor for SearchInYouTube, Version=1.0.0.0, Culture=neutral, PublicKeyToken=null (target: Default)
2020-02-07T10:29:59.0820667+02:00:Thread #0: Creating test assembly executor for execution model AppDomain
2020-02-07T10:29:59.0850657+02:00:Thread #0: Creating test assembly executor for execution model AppDomain
2020-02-07T10:29:59.0860649+02:00:Thread #0: using TechTalk.SpecRun.Framework.Execution.InProcess.InProcAppDomainTestAssemblyExecutorHost to execute tests
2020-02-07T10:29:59.3319871+02:00:Thread#0:T:-> Loading plugin C:\Users\Vesela\source\repos\SearchInYouTube\bin\Debug\SpecRun.Runtime.SpecFlowPlugin.dll
2020-02-07T10:29:59.3389837+02:00:Thread#0:T:-> Using default config
2020-02-07T10:29:59.9333220+02:00:Thread#0: Test #4/0 is started on thread #0
2020-02-07T10:29:59.9733093+02:00:Thread#0:B:Given I have navigated to YouTube website
2020-02-07T10:30:00.1422543+02:00:Thread#0:T:error: Exception has been thrown by the target of an invocation.
2020-02-07T10:30:00.1432546+02:00:Thread#0:B:And I have entered Rebirth as searched keyword
2020-02-07T10:30:00.1442543+02:00:Thread#0:T:binding error: Parameter count mismatch! The binding method 'SearchInYouTube:SearchInYouTube.StepDefinitions.YouTubeSearchFeatureSteps.GivenIHaveEnteredRebirthAsSearchedKeyword(String)' should have 0 parameters
2020-02-07T10:30:00.1442543+02:00:Thread#0:B:When I press the search button
2020-02-07T10:30:00.1452541+02:00:Thread#0:T:skipped because of previous errors
2020-02-07T10:30:00.1482531+02:00:Thread#0:B:Then I should be navigated to search results page
2020-02-07T10:30:00.1482531+02:00:Thread#0:T:skipped because of previous errors
2020-02-07T10:30:00.1882416+02:00:Thread#0:TestItem#4:Scheduler: reschedule tests for testitem #4
2020-02-07T10:30:00.1902403+02:00:Thread#0:Scheduler: get next test for thread 0
2020-02-07T10:30:00.1902403+02:00:Thread#:Scheduler: dequeuing a rescheduled testitem: #4
2020-02-07T10:30:00.1902403+02:00:Thread#0:Scheduler: considering testitem #4 for thread 0
2020-02-07T10:30:00.1902403+02:00:Thread#0:TestItem#4:testItemMatchesCurrentTestThread:UnSpecific
2020-02-07T10:30:00.1902403+02:00:Thread#0:TestItem#4:runsOnOneOtherThreadSpecific:False
2020-02-07T10:30:00.1902403+02:00:Thread#0:TestItem#4:runsOnOneOtherThreadUnspecific:False
2020-02-07T10:30:00.1902403+02:00:Thread#0:Scheduler: using testitem #4 for thread 0
2020-02-07T10:30:00.1902403+02:00:Thread#0:Scheduler: Test #4 is scheduled for thread
2020-02-07T10:30:00.1902403+02:00:Thread#0:Scheduler: with testItemExecutionIndex 1
2020-02-07T10:30:00.2092335+02:00:Thread#0: Test #4/0 is finished on thread #0 as Failed within 0.2749119 seconds
2020-02-07T10:30:00.2122335+02:00:Thread#0: Test #4/1 is started on thread #0
2020-02-07T10:30:00.2142320+02:00:Thread#0:B:Given I have navigated to YouTube website
2020-02-07T10:30:00.2162307+02:00:Thread#0:T:error: Exception has been thrown by the target of an invocation.
2020-02-07T10:30:00.2162307+02:00:Thread#0:B:And I have entered Rebirth as searched keyword
2020-02-07T10:30:00.2162307+02:00:Thread#0:T:binding error: Parameter count mismatch! The binding method 'SearchInYouTube:SearchInYouTube.StepDefinitions.YouTubeSearchFeatureSteps.GivenIHaveEnteredRebirthAsSearchedKeyword(String)' should have 0 parameters
2020-02-07T10:30:00.2172306+02:00:Thread#0:B:When I press the search button
2020-02-07T10:30:00.2172306+02:00:Thread#0:T:skipped because of previous errors
2020-02-07T10:30:00.2172306+02:00:Thread#0:B:Then I should be navigated to search results page
2020-02-07T10:30:00.2172306+02:00:Thread#0:T:skipped because of previous errors
2020-02-07T10:30:00.2182301+02:00:Thread#0:Scheduler: get next test for thread 0
2020-02-07T10:30:00.2182301+02:00:Thread#:Scheduler: dequeuing a rescheduled testitem: #4
2020-02-07T10:30:00.2182301+02:00:Thread#0:Scheduler: considering testitem #4 for thread 0
2020-02-07T10:30:00.2182301+02:00:Thread#0:TestItem#4:testItemMatchesCurrentTestThread:UnSpecific
2020-02-07T10:30:00.2182301+02:00:Thread#0:TestItem#4:runsOnOneOtherThreadSpecific:False
2020-02-07T10:30:00.2182301+02:00:Thread#0:TestItem#4:runsOnOneOtherThreadUnspecific:False
2020-02-07T10:30:00.2182301+02:00:Thread#0:Scheduler: using testitem #4 for thread 0
2020-02-07T10:30:00.2182301+02:00:Thread#0:Scheduler: Test #4 is scheduled for thread
2020-02-07T10:30:00.2182301+02:00:Thread#0:Scheduler: with testItemExecutionIndex 2
2020-02-07T10:30:00.2182301+02:00:Thread#0: Test #4/1 is finished on thread #0 as Failed within 0.0049973 seconds
2020-02-07T10:30:00.2222291+02:00:Thread#0: Test #4/2 is started on thread #0
2020-02-07T10:30:00.2232291+02:00:Thread#0:B:Given I have navigated to YouTube website
2020-02-07T10:30:00.2292271+02:00:Thread#0:T:error: Exception has been thrown by the target of an invocation.
2020-02-07T10:30:00.2302269+02:00:Thread#0:B:And I have entered Rebirth as searched keyword
2020-02-07T10:30:00.2302269+02:00:Thread#0:T:binding error: Parameter count mismatch! The binding method 'SearchInYouTube:SearchInYouTube.StepDefinitions.YouTubeSearchFeatureSteps.GivenIHaveEnteredRebirthAsSearchedKeyword(String)' should have 0 parameters
2020-02-07T10:30:00.2302269+02:00:Thread#0:B:When I press the search button
2020-02-07T10:30:00.2302269+02:00:Thread#0:T:skipped because of previous errors
2020-02-07T10:30:00.2302269+02:00:Thread#0:B:Then I should be navigated to search results page
2020-02-07T10:30:00.2312263+02:00:Thread#0:T:skipped because of previous errors
2020-02-07T10:30:00.2312263+02:00:Thread#0:Scheduler: get next test for thread 0
2020-02-07T10:30:00.2312263+02:00:Thread#:Scheduler: at the end of normal test queue
2020-02-07T10:30:00.2312263+02:00:Thread#0:Scheduler: enumerator for thread is at end
2020-02-07T10:30:00.2312263+02:00:Thread#0:Scheduler: No more tests for thread
2020-02-07T10:30:00.2562189+02:00:Thread#0: Test #4/2 is finished on thread #0 as Failed within 0.0329898 seconds
2020-02-07T10:30:00.3191987+02:00:Trying to cancel thread
2020-02-07T10:30:00.3191987+02:00:Thread cancelled
2020-02-07T10:30:00.3261956+02:00:Thread#-1:Scheduler: get next test for thread -1
2020-02-07T10:30:00.3261956+02:00:Thread#:Scheduler: at the end of normal test queue
2020-02-07T10:30:00.3261956+02:00:Thread#-1:Scheduler: enumerator for thread is at end
2020-02-07T10:30:00.3311943+02:00;Thread#13;Info;test run finished
2020-02-07T10:30:00.3311943+02:00;Thread#13;Info;publishing test results
2020-02-07T10:30:00.3451910+02:00;Thread#13;Info;test results published
2020-02-07T10:30:00.3461906+02:00;Thread#13;Info;generating reports
2020-02-07T10:30:00.6720841+02:00;Thread#13;Info;Starting external report generation process
2020-02-07T10:30:03.3907220+02:00;Thread#13;Info;Successfully generated reports.
2020-02-07T10:30:03.3927209+02:00;Thread#13;Info;Successfully generated reports
2020-02-07T10:30:03.3997186+02:00:Total: 1 (test executions: 3)
2020-02-07T10:30:03.4007185+02:00:Succeeded: 0
2020-02-07T10:30:03.4017180+02:00:Ignored: 0
2020-02-07T10:30:03.4017180+02:00:Pending: 0
2020-02-07T10:30:03.4017180+02:00:Skipped: 0
2020-02-07T10:30:03.4027178+02:00:Failed: 1
2020-02-07T10:30:03.4157142+02:00;VSTestExecutionThread;Info;Adding attachments to VSTest
2020-02-07T10:30:03.4157142+02:00;VSTestExecutionThread;Info;adding Test Execution Report 'C:\Users\Vesela\source\repos\SearchInYouTube\TestResults\Unnamed project__2020-02-07T102958.html'
========== End of log file ==========
