﻿2020-02-07T16:33:03.9739869+02:00;VSTestExecutionThread;Info;SpecFlow+Runner execution started
2020-02-07T16:33:03.9739869+02:00;VSTestExecutionThread;Info;SpecFlow+Runner 3.1.48 in Framework clr40 in x86 mode execution started
2020-02-07T16:33:03.9739869+02:00;VSTestExecutionThread;Info;TestAdapter Location: C:\Users\Vesela\source\repos\SearchInYouTube\packages\SpecRun.Runner.3.1.48\tools\net45\TechTalk.SpecRun.VisualStudio.TestAdapter.dll
2020-02-07T16:33:04.0049772+02:00;VSTestExecutionThread;Info;SpecRun: running tests in C:\Users\Vesela\source\repos\SearchInYouTube\bin\Debug\SearchInYouTube.dll
2020-02-07T16:33:04.0059765+02:00;VSTestExecutionThread;Info;Output folder configured to "C:\Users\Vesela\source\repos\SearchInYouTube\TestResults" (default)
2020-02-07T16:33:04.0059765+02:00;VSTestExecutionThread;Info;Profile: 
2020-02-07T16:33:04.0249896+02:00;VSTestExecutionThread;Info;Log file path: C:\Users\Vesela\source\repos\SearchInYouTube\TestResults\Unnamed project__2020-02-07T163304.log
2020-02-07T16:33:04.0539794+02:00;Thread#13;Info;Checking license
2020-02-07T16:33:04.0589775+02:00;Thread#13;Info;License check completed
2020-02-07T16:33:04.0589775+02:00;Thread#13;Info;starting test run
2020-02-07T16:33:04.0659754+02:00;Thread#13;Info;Discovering target: Default
2020-02-07T16:33:04.0669748+02:00;Thread#13;Info;Discovering tests from assembly: C:\Users\Vesela\source\repos\SearchInYouTube\bin\Debug\SearchInYouTube.dll
2020-02-07T16:33:04.4528325+02:00;Thread#13;Info;Discovered tests from assembly: C:\Users\Vesela\source\repos\SearchInYouTube\bin\Debug\SearchInYouTube.dll
2020-02-07T16:33:04.4538325+02:00:Test Suite Dump
2020-02-07T16:33:04.4548451+02:00:#0: Unnamed project/ - 
2020-02-07T16:33:04.4548451+02:00:#1: Default - 
2020-02-07T16:33:04.4548451+02:00:#2: SearchInYouTube - 
2020-02-07T16:33:04.4548451+02:00:#3: YouTubeSearchFeature - 
2020-02-07T16:33:04.4908390+02:00:#4: Youtube should search for the given keyword and should navigate to search results page - TestAssembly:SearchInYouTube/Feature:YouTubeSearchFeature/Scenario:Youtube+should+search+for+the+given+keyword+and+should+navigate+to+search+results+page
2020-02-07T16:33:04.4908390+02:00:End: Test Suite Dump
2020-02-07T16:33:04.5108322+02:00:Thread#0:Scheduler: get next test for thread 0
2020-02-07T16:33:04.5128323+02:00:Thread#:Scheduler: testitem #4 from normal test queue 
2020-02-07T16:33:04.5128323+02:00:Thread#0:Scheduler: considering testitem #4 for thread 0
2020-02-07T16:33:04.5168122+02:00:Thread#0:TestItem#4:testItemMatchesCurrentTestThread:UnSpecific
2020-02-07T16:33:04.5168122+02:00:Thread#0:TestItem#4:runsOnOneOtherThreadSpecific:False
2020-02-07T16:33:04.5168122+02:00:Thread#0:TestItem#4:runsOnOneOtherThreadUnspecific:False
2020-02-07T16:33:04.5168122+02:00:Thread#0:Scheduler: using testitem #4 for thread 0
2020-02-07T16:33:04.5188187+02:00:Thread#0:Scheduler: Test #4 is scheduled for thread
2020-02-07T16:33:04.5198118+02:00:Thread#0:Scheduler: with testItemExecutionIndex 0
2020-02-07T16:33:04.5218102+02:00:Thread #0: creating new test thread executor for SearchInYouTube, Version=1.0.0.0, Culture=neutral, PublicKeyToken=null (target: Default)
2020-02-07T16:33:04.5248096+02:00:Thread #0: Creating test assembly executor for execution model AppDomain
2020-02-07T16:33:04.5268088+02:00:Thread #0: Creating test assembly executor for execution model AppDomain
2020-02-07T16:33:04.5278093+02:00:Thread #0: using TechTalk.SpecRun.Framework.Execution.InProcess.InProcAppDomainTestAssemblyExecutorHost to execute tests
2020-02-07T16:33:04.7447384+02:00:Thread#0:T:-> Loading plugin C:\Users\Vesela\source\repos\SearchInYouTube\bin\Debug\SpecRun.Runtime.SpecFlowPlugin.dll
2020-02-07T16:33:04.7517362+02:00:Thread#0:T:-> Using default config
2020-02-07T16:33:05.2014327+02:00:Thread#0: Test #4/0 is started on thread #0
2020-02-07T16:33:07.7139758+02:00:Thread#0:T:Before Scenario Hook!
2020-02-07T16:33:07.7199741+02:00:Thread#0:B:Given I have navigated to YouTube website
2020-02-07T16:33:11.9302592+02:00:Thread#0:T:done: YouTubeSearchFeatureSteps.GivenIHaveNavigatedToYouTubeWebsite() (4.2s)
2020-02-07T16:33:11.9432549+02:00:Thread#0:B:And I have entered Rebirth as searched keyword
2020-02-07T16:33:12.1731809+02:00:Thread#0:T:done: YouTubeSearchFeatureSteps.GivenIHaveEnteredRebirthAsSearchedKeyword("Rebirth") (0.2s)
2020-02-07T16:33:12.1771790+02:00:Thread#0:B:When I press the search button
2020-02-07T16:33:12.2961406+02:00:Thread#0:T:done: YouTubeSearchFeatureSteps.WhenIPressTheSearchButton() (0.1s)
2020-02-07T16:33:12.3001402+02:00:Thread#0:B:Then I should be navigated to search results page
2020-02-07T16:33:14.3124147+02:00:Thread#0:T:done: YouTubeSearchFeatureSteps.ThenIShouldBeNavigatedToSearchResultsPage() (2.0s)
2020-02-07T16:33:14.3284275+02:00:Thread#0:Scheduler: get next test for thread 0
2020-02-07T16:33:14.3284275+02:00:Thread#:Scheduler: at the end of normal test queue
2020-02-07T16:33:14.3284275+02:00:Thread#0:Scheduler: enumerator for thread is at end
2020-02-07T16:33:14.3284275+02:00:Thread#0:Scheduler: No more tests for thread
2020-02-07T16:33:15.4497353+02:00:Thread#0: Test #4/0 is finished on thread #0 as Succeeded within 10.2483026 seconds
2020-02-07T16:33:15.4797261+02:00:Trying to cancel thread
2020-02-07T16:33:15.4797261+02:00:Thread cancelled
2020-02-07T16:33:15.4857237+02:00:Thread#-1:Scheduler: get next test for thread -1
2020-02-07T16:33:15.4857237+02:00:Thread#:Scheduler: at the end of normal test queue
2020-02-07T16:33:15.4857237+02:00:Thread#-1:Scheduler: enumerator for thread is at end
2020-02-07T16:33:15.4867236+02:00;Thread#13;Info;test run finished
2020-02-07T16:33:15.4877228+02:00;Thread#13;Info;publishing test results
2020-02-07T16:33:15.4927217+02:00;Thread#13;Info;test results published
2020-02-07T16:33:15.4927217+02:00;Thread#13;Info;generating reports
2020-02-07T16:33:15.5886906+02:00;Thread#13;Info;Starting external report generation process
2020-02-07T16:33:16.9580661+02:00;Thread#13;Info;Successfully generated reports.
2020-02-07T16:33:16.9590661+02:00;Thread#13;Info;Successfully generated reports
2020-02-07T16:33:16.9660634+02:00:Total: 1
2020-02-07T16:33:16.9680634+02:00:Succeeded: 1
2020-02-07T16:33:16.9680634+02:00:Ignored: 0
2020-02-07T16:33:16.9690621+02:00:Pending: 0
2020-02-07T16:33:16.9690621+02:00:Skipped: 0
2020-02-07T16:33:16.9690621+02:00:Failed: 0
2020-02-07T16:33:16.9810591+02:00;VSTestExecutionThread;Info;Adding attachments to VSTest
2020-02-07T16:33:16.9810591+02:00;VSTestExecutionThread;Info;adding Test Execution Report 'C:\Users\Vesela\source\repos\SearchInYouTube\TestResults\Unnamed project__2020-02-07T163304.html'
========== End of log file ==========
