﻿2020-02-07T16:33:15.8648898+02:00;Thread#1;Info;Reading test run result from Json file "C:\Users\Vesela\AppData\Local\Temp\tmpCC1.tmp".
2020-02-07T16:33:15.8668889+02:00;Thread#1;Info;Successfully read test run result from Json file "C:\Users\Vesela\AppData\Local\Temp\tmpCC1.tmp"
2020-02-07T16:33:15.8668889+02:00;Thread#1;Info;Deserializing test run result
2020-02-07T16:33:16.2607795+02:00;Thread#1;Info;Successfully deserialized test run result
2020-02-07T16:33:16.2617793+02:00;Thread#1;Info;Loading test run result
2020-02-07T16:33:16.2787691+02:00;Thread#1;Info;Successfully loaded test run result
2020-02-07T16:33:16.2867666+02:00;Thread#1;Info;creating 1 report(s)
2020-02-07T16:33:16.2867666+02:00;Thread#1;Info;generate Report ReportTemplate.cshtml
2020-02-07T16:33:16.9210787+02:00;Thread#1;Info;Finished generating reports.
========== End of log file ==========
