﻿2020-02-07T11:11:50.0916765+02:00;Thread#1;Info;Reading test run result from Json file "C:\Users\Vesela\AppData\Local\Temp\tmpC5BC.tmp".
2020-02-07T11:11:50.0936760+02:00;Thread#1;Info;Successfully read test run result from Json file "C:\Users\Vesela\AppData\Local\Temp\tmpC5BC.tmp"
2020-02-07T11:11:50.0946845+02:00;Thread#1;Info;Deserializing test run result
2020-02-07T11:11:50.5765206+02:00;Thread#1;Info;Successfully deserialized test run result
2020-02-07T11:11:50.5765206+02:00;Thread#1;Info;Loading test run result
2020-02-07T11:11:50.6025112+02:00;Thread#1;Info;Successfully loaded test run result
2020-02-07T11:11:50.6245056+02:00;Thread#1;Info;creating 1 report(s)
2020-02-07T11:11:50.6245056+02:00;Thread#1;Info;generate Report ReportTemplate.cshtml
2020-02-07T11:11:51.3262779+02:00;Thread#1;Info;Finished generating reports.
========== End of log file ==========
