﻿2020-02-07T15:23:25.4155168+02:00;Thread#1;Info;Reading test run result from Json file "C:\Users\Vesela\AppData\Local\Temp\tmp1AE2.tmp".
2020-02-07T15:23:25.4175162+02:00;Thread#1;Info;Successfully read test run result from Json file "C:\Users\Vesela\AppData\Local\Temp\tmp1AE2.tmp"
2020-02-07T15:23:25.4175162+02:00;Thread#1;Info;Deserializing test run result
2020-02-07T15:23:25.8113762+02:00;Thread#1;Info;Successfully deserialized test run result
2020-02-07T15:23:25.8113762+02:00;Thread#1;Info;Loading test run result
2020-02-07T15:23:25.8293882+02:00;Thread#1;Info;Successfully loaded test run result
2020-02-07T15:23:25.8373865+02:00;Thread#1;Info;creating 1 report(s)
2020-02-07T15:23:25.8373865+02:00;Thread#1;Info;generate Report ReportTemplate.cshtml
2020-02-07T15:23:26.5682273+02:00;Thread#1;Info;Finished generating reports.
========== End of log file ==========
