﻿2020-02-08T09:45:58.6133427+02:00;Thread#1;Info;Reading test run result from Json file "C:\Users\ivo\AppData\Local\Temp\tmpAA9F.tmp".
2020-02-08T09:45:58.6162146+02:00;Thread#1;Info;Successfully read test run result from Json file "C:\Users\ivo\AppData\Local\Temp\tmpAA9F.tmp"
2020-02-08T09:45:58.6162146+02:00;Thread#1;Info;Deserializing test run result
2020-02-08T09:45:59.0337447+02:00;Thread#1;Info;Successfully deserialized test run result
2020-02-08T09:45:59.0337447+02:00;Thread#1;Info;Loading test run result
2020-02-08T09:45:59.0526959+02:00;Thread#1;Info;Successfully loaded test run result
2020-02-08T09:45:59.0616791+02:00;Thread#1;Info;creating 1 report(s)
2020-02-08T09:45:59.0616791+02:00;Thread#1;Info;generate Report ReportTemplate.cshtml
2020-02-08T09:46:00.1658636+02:00;Thread#1;Info;Finished generating reports.
========== End of log file ==========
